{
  "playlists": {
    "href": "https://api.spotify.com/v1/search?query=Coldwave+Mix&type=playlist&locale=en-GB%2Cen-US%3Bq%3D0.9%2Cen%3Bq%3D0.8&offset=0&limit=1",
    "items": [
      {
        "collaborative": false,
        "description": "Coldwave music picked just for you",
        "external_urls": {
          "spotify": "https://open.spotify.com/playlist/37i9dQZF1EIhLBuEwfdswY"
        },
        "href": "https://api.spotify.com/v1/playlists/37i9dQZF1EIhLBuEwfdswY",
        "id": "37i9dQZF1EIhLBuEwfdswY",
        "images": [
          {
            "height": null,
            "url": "https://seed-mix-image.spotifycdn.com/v6/img/desc/Coldwave/en/large",
            "width": null
          }
        ],
        "name": "Coldwave Mix",
        "owner": {
          "display_name": "Spotify",
          "external_urls": {
            "spotify": "https://open.spotify.com/user/spotify"
          },
          "href": "https://api.spotify.com/v1/users/spotify",
          "id": "spotify",
          "type": "user",
          "uri": "spotify:user:spotify"
        },
        "primary_color": null,
        "public": null,
        "snapshot_id": "MTk2NTYsMDAwMDAwMDBiZGI3YjhjYmNlYjkyZTc3YmNiOTc3YjJlMDFjZjM2Mw==",
        "tracks": {
          "href": "https://api.spotify.com/v1/playlists/37i9dQZF1EIhLBuEwfdswY/tracks",
          "total": 50
        },
        "type": "playlist",
        "uri": "spotify:playlist:37i9dQZF1EIhLBuEwfdswY"
      }
    ],
    "limit": 1,
    "next": "https://api.spotify.com/v1/search?query=Coldwave+Mix&type=playlist&locale=en-GB%2Cen-US%3Bq%3D0.9%2Cen%3Bq%3D0.8&offset=1&limit=1",
    "offset": 0,
    "previous": null,
    "total": 208
  }
}